F:\facultate\proiect sd\rpcclient\target\generated-sources\protobuf\java\project\Service.java
F:\facultate\proiect sd\rpcclient\target\generated-sources\protobuf\grpc-java\project\GreetingServiceGrpc.java
F:\facultate\proiect sd\rpcclient\src\main\java\Test.java
